<?xml version="1.0" encoding="UTF-8" standalone="no"?>
<svg
   width="1373"
   height="1956"
   viewBox="0 0 1373 1956"
   fill="none"
   version="1.1"
   id="svg1397"
   sodipodi:docname="logo-DACompSI.svg"
   inkscape:version="1.2.2 (b0a8486541, 2022-12-01)"
   xmlns:inkscape="http://www.inkscape.org/namespaces/inkscape"
   xmlns:sodipodi="http://sodipodi.sourceforge.net/DTD/sodipodi-0.dtd"
   xmlns="http://www.w3.org/2000/svg"
   xmlns:svg="http://www.w3.org/2000/svg">
  <sodipodi:namedview
     id="namedview1399"
     pagecolor="#ffffff"
     bordercolor="#666666"
     borderopacity="1.0"
     inkscape:showpageshadow="2"
     inkscape:pageopacity="0.0"
     inkscape:pagecheckerboard="0"
     inkscape:deskcolor="#d1d1d1"
     showgrid="false"
     inkscape:zoom="0.22034765"
     inkscape:cx="685.28074"
     inkscape:cy="975.73086"
     inkscape:window-width="1920"
     inkscape:window-height="1003"
     inkscape:window-x="1080"
     inkscape:window-y="643"
     inkscape:window-maximized="1"
     inkscape:current-layer="svg1397" />
  <g
     id="g1605">
    <path
       d="M690.776 630.701C678.491 624.539 647.109 614.035 652.099 600.325C657.443 581.035 702.448 595.952 701.625 595.631L711.989 574.637C711.989 574.637 703.109 562.939 671.776 563.035C640.081 563.132 624.493 576.375 621.827 605.041C621.827 605.041 615.776 637.701 664.776 653.035C664.776 653.035 701.109 665.368 688.109 684.035C688.109 684.035 675.443 699.368 624.892 683.143L616.343 708.035C616.343 708.035 632.776 720.701 681.109 719.533C681.109 719.533 702.105 717.619 713.776 702.035C728.128 682.869 729.749 650.252 690.776 630.701Z"
       fill="#3E4344"
       id="path1255" />
    <path
       d="M801.107 713.988H771.107V568.655H801.107V713.988Z"
       fill="#3E4344"
       id="path1257" />
    <path
       d="M740 508.288C740 508.288 628.689 559.233 616.249 450.507C616.161 449.737 616 444.952 616 443.067L646.223 448.176C646.223 448.176 646.285 449.084 646.521 450.64C648.301 462.355 659.927 510.797 728.864 484.497C728.864 484.497 737.443 501.737 740 508.288Z"
       fill="#3E4344"
       id="path1259" />
    <path
       d="M740 375.327C740 375.327 628.541 324.315 616.224 433.326C616.144 434.023 616 441.285 616 443.067L646.223 435.439C646.223 435.439 646.265 434.812 646.416 433.708C647.805 423.475 658.377 372.227 728.864 399.118C728.864 399.118 737.443 381.878 740 375.327Z"
       fill="#3E4344"
       id="path1261" />
    <path
       d="M616.249 450.507L646.87 452.668C646.87 452.668 645.543 438.703 646.747 431.616C647.951 424.529 616.25 435.439 616.25 435.439L616.249 450.507Z"
       fill="#3E4344"
       id="path1263" />
    <path
       d="M841.799 488.764C818.541 488.764 799.688 467.26 799.688 440.733C799.688 414.206 818.541 392.701 841.799 392.701C865.056 392.701 883.909 414.206 883.909 440.733C883.909 467.26 865.056 488.764 841.799 488.764ZM841.664 362.129C799.016 362.129 764.443 397.802 764.443 441.808C764.443 485.814 799.016 521.486 841.664 521.486C884.315 521.486 918.887 485.814 918.887 441.808C918.887 397.802 884.315 362.129 841.664 362.129Z"
       fill="#3E4344"
       id="path1265" />
    <path
       d="M1025.11 453.808L985.776 369.141H955.109L942.443 514.474H974.443L979.109 418.474L1011.11 496.474H1025.11V453.808Z"
       fill="#3E4344"
       id="path1267" />
    <path
       d="M1025.11 453.808L1064.44 369.141H1095.11L1107.78 514.474H1075.78L1071.11 418.474L1039.11 496.474H1025.11V453.808Z"
       fill="#3E4344"
       id="path1269" />
    <path
       d="M1032.44 496.475H1018.11V453.641H1032.44V496.475Z"
       fill="#3E4344"
       id="path1271" />
    <path
       d="M1162.44 439.616V417.949H1131.44V466.121L1162.44 465.949H1189.11C1189.11 465.949 1241.11 471.616 1242.44 417.949H1211.78C1211.78 417.949 1213.44 439.283 1184.11 439.283"
       fill="#3E4344"
       id="path1273" />
    <path
       d="M1162.44 394.949V416.616H1131.44V368.444L1162.44 368.616H1189.11C1189.11 368.616 1241.11 362.949 1242.44 416.616H1211.78C1211.78 416.616 1213.44 395.283 1184.11 395.283"
       fill="#3E4344"
       id="path1275" />
    <path
       d="M1162.44 496.283H1131.44V376.283H1162.44V496.283Z"
       fill="#3E4344"
       id="path1277" />
    <path
       d="M1242.44 420.061H1211.78V412.949H1242.44V420.061Z"
       fill="#3E4344"
       id="path1279" />
    <path
       d="M1162.44 515.172H1131.44V461.616H1162.44V515.172Z"
       fill="#3E4344"
       id="path1281" />
    <path
       d="M722.109 243.701C723.109 300.368 655.443 292.701 655.443 292.701V194.701L655.481 292.468V194.468C655.481 194.468 723.148 186.801 722.148 243.468L722.109 243.701ZM753.109 241.949C757.109 142.555 624.443 167.888 624.443 167.888V318.701C624.443 318.701 757.109 344.035 753.109 244.64V241.949Z"
       fill="#C90019"
       id="path1283" />
    <path
       d="M849.642 170.406H829.198L777.198 316.184H811.419L821.642 285.517L849.642 285.962V259.296H830.086L849.642 201.517V170.406Z"
       fill="#C90019"
       id="path1285" />
    <path
       d="M849.642 170.406H870.086L922.086 316.184H887.865L877.642 285.517L849.642 285.962V259.296H869.198L849.642 201.517V170.406Z"
       fill="#C90019"
       id="path1287" />
    <path
       d="M869.19 285.651H832.086V259.294H869.19V285.651Z"
       fill="#C90019"
       id="path1289" />
    <path
       d="M856.975 170.406H842.309V201.516H856.975V170.406Z"
       fill="#C90019"
       id="path1291" />
    <g
       clip-path="url(#clip0_1_215)"
       id="g1319">
      <path
         d="M82.8001 641.164L73.2868 638.083L162.151 363.801L171.664 366.883L82.8001 641.164Z"
         fill="#3E4344"
         id="path1293" />
      <path
         d="M121.226 121.214L119.809 111.315L405.219 70.4728L406.637 80.3714L121.226 121.214Z"
         fill="#3E4344"
         id="path1295" />
      <path
         d="M104.155 675.867L108.384 666.806L369.628 788.786L365.398 797.847L104.155 675.867Z"
         fill="#3E4344"
         id="path1297" />
      <path
         d="M105.456 660.075L104.52 650.119L458.212 616.919L459.147 626.878L105.456 660.075Z"
         fill="#3E4344"
         id="path1299" />
      <path
         d="M112.416 151.917L120.021 145.424L350.7 415.585L343.093 422.079L112.416 151.917Z"
         fill="#3E4344"
         id="path1301" />
      <path
         d="M79.5781 651.51L73.6115 643.484L358.693 431.524L364.661 439.549L79.5781 651.51Z"
         fill="#3E4344"
         id="path1303" />
      <path
         d="M475.791 71.806C475.791 99.9713 452.959 122.803 424.794 122.803C396.628 122.803 373.796 99.9713 373.796 71.806C373.796 43.6407 396.628 20.8087 424.794 20.8087C452.959 20.8087 475.791 43.6407 475.791 71.806Z"
         fill="#3E4344"
         id="path1305" />
      <path
         d="M143.141 120.137C143.141 148.302 120.309 171.134 92.144 171.134C63.9786 171.134 41.1466 148.302 41.1466 120.137C41.1466 91.9713 63.9786 69.1393 92.144 69.1393C120.309 69.1393 143.141 91.9713 143.141 120.137Z"
         fill="#C90019"
         id="path1307" />
      <path
         d="M221.803 343.792C221.803 371.958 198.971 394.79 170.806 394.79C142.641 394.79 119.809 371.958 119.809 343.792C119.809 315.627 142.641 292.795 170.806 292.795C198.971 292.795 221.803 315.627 221.803 343.792Z"
         fill="#3E4344"
         id="path1309" />
      <path
         d="M409.794 436.598C409.794 464.764 386.962 487.597 358.797 487.597C330.632 487.597 307.8 464.764 307.8 436.598C307.8 408.433 330.632 385.601 358.797 385.601C386.962 385.601 409.794 408.433 409.794 436.598Z"
         fill="#3E4344"
         id="path1311" />
      <path
         d="M122.475 653.111C122.475 681.276 99.6432 704.109 71.4779 704.109C43.3125 704.109 20.4805 681.276 20.4805 653.111C20.4805 624.945 43.3125 602.113 71.4779 602.113C99.6432 602.113 122.475 624.945 122.475 653.111Z"
         fill="#C90019"
         id="path1313" />
      <path
         d="M525.455 623.113C525.455 651.279 502.623 674.112 474.458 674.112C446.292 674.112 423.46 651.279 423.46 623.113C423.46 594.948 446.292 572.116 474.458 572.116C502.623 572.116 525.455 594.948 525.455 623.113Z"
         fill="#3E4344"
         id="path1315" />
      <path
         d="M454.126 813.769C454.126 841.935 431.294 864.768 403.128 864.768C374.963 864.768 352.131 841.935 352.131 813.769C352.131 785.604 374.963 762.772 403.128 762.772C431.294 762.772 454.126 785.604 454.126 813.769Z"
         fill="#3E4344"
         id="path1317" />
    </g>
  </g>
  <path
     d="M800.776 1556.7C788.491 1550.54 757.109 1540.03 762.099 1526.33C767.443 1507.03 812.448 1521.95 811.625 1521.63L821.989 1500.64C821.989 1500.64 813.109 1488.94 781.776 1489.03C750.081 1489.13 734.493 1502.37 731.827 1531.04C731.827 1531.04 725.776 1563.7 774.776 1579.03C774.776 1579.03 811.109 1591.37 798.109 1610.03C798.109 1610.03 785.443 1625.37 734.892 1609.14L726.343 1634.03C726.343 1634.03 742.776 1646.7 791.109 1645.53C791.109 1645.53 812.105 1643.62 823.776 1628.03C838.128 1608.87 839.749 1576.25 800.776 1556.7Z"
     fill="#3E4344"
     id="path1321" />
  <path
     d="M911.107 1639.99H881.107V1494.66H911.107V1639.99Z"
     fill="#3E4344"
     id="path1323" />
  <path
     d="M850 1434.29C850 1434.29 738.689 1485.23 726.249 1376.51C726.161 1375.74 726 1370.95 726 1369.07L756.223 1374.18C756.223 1374.18 756.285 1375.08 756.521 1376.64C758.301 1388.35 769.927 1436.8 838.864 1410.5C838.864 1410.5 847.443 1427.74 850 1434.29Z"
     fill="#3E4344"
     id="path1325" />
  <path
     d="M850 1301.33C850 1301.33 738.541 1250.32 726.224 1359.33C726.144 1360.02 726 1367.29 726 1369.07L756.223 1361.44C756.223 1361.44 756.265 1360.81 756.416 1359.71C757.805 1349.48 768.377 1298.23 838.864 1325.12C838.864 1325.12 847.443 1307.88 850 1301.33Z"
     fill="#3E4344"
     id="path1327" />
  <path
     d="M726.249 1376.51L756.87 1378.67C756.87 1378.67 755.543 1364.7 756.747 1357.62C757.951 1350.53 726.25 1361.44 726.25 1361.44L726.249 1376.51Z"
     fill="#3E4344"
     id="path1329" />
  <path
     d="M951.799 1414.76C928.541 1414.76 909.688 1393.26 909.688 1366.73C909.688 1340.21 928.541 1318.7 951.799 1318.7C975.056 1318.7 993.909 1340.21 993.909 1366.73C993.909 1393.26 975.056 1414.76 951.799 1414.76ZM951.664 1288.13C909.016 1288.13 874.443 1323.8 874.443 1367.81C874.443 1411.81 909.016 1447.49 951.664 1447.49C994.315 1447.49 1028.89 1411.81 1028.89 1367.81C1028.89 1323.8 994.315 1288.13 951.664 1288.13Z"
     fill="#3E4344"
     id="path1331" />
  <path
     d="M1135.11 1379.81L1095.78 1295.14H1065.11L1052.44 1440.47H1084.44L1089.11 1344.47L1121.11 1422.47H1135.11V1379.81Z"
     fill="#3E4344"
     id="path1333" />
  <path
     d="M1135.11 1379.81L1174.44 1295.14H1205.11L1217.78 1440.47H1185.78L1181.11 1344.47L1149.11 1422.47H1135.11V1379.81Z"
     fill="#3E4344"
     id="path1335" />
  <path
     d="M1142.44 1422.47H1128.11V1379.64H1142.44V1422.47Z"
     fill="#3E4344"
     id="path1337" />
  <path
     d="M1272.44 1365.62V1343.95H1241.44V1392.12L1272.44 1391.95H1299.11C1299.11 1391.95 1351.11 1397.62 1352.44 1343.95H1321.78C1321.78 1343.95 1323.44 1365.28 1294.11 1365.28"
     fill="#3E4344"
     id="path1339" />
  <path
     d="M1272.44 1320.95V1342.62H1241.44V1294.44L1272.44 1294.62H1299.11C1299.11 1294.62 1351.11 1288.95 1352.44 1342.62H1321.78C1321.78 1342.62 1323.44 1321.28 1294.11 1321.28"
     fill="#3E4344"
     id="path1341" />
  <path
     d="M1272.44 1422.28H1241.44V1302.28H1272.44V1422.28Z"
     fill="#3E4344"
     id="path1343" />
  <path
     d="M1352.44 1346.06H1321.78V1338.95H1352.44V1346.06Z"
     fill="#3E4344"
     id="path1345" />
  <path
     d="M1272.44 1441.17H1241.44V1387.62H1272.44V1441.17Z"
     fill="#3E4344"
     id="path1347" />
  <path
     d="M832.109 1169.7C833.109 1226.37 765.443 1218.7 765.443 1218.7V1120.7L765.481 1218.47V1120.47C765.481 1120.47 833.148 1112.8 832.148 1169.47L832.109 1169.7ZM863.109 1167.95C867.109 1068.55 734.443 1093.89 734.443 1093.89V1244.7C734.443 1244.7 867.109 1270.03 863.109 1170.64V1167.95Z"
     fill="#C90019"
     id="path1349" />
  <path
     d="M959.642 1096.41H939.198L887.198 1242.18H921.419L931.642 1211.52L959.642 1211.96V1185.3H940.086L959.642 1127.52V1096.41Z"
     fill="#C90019"
     id="path1351" />
  <path
     d="M959.642 1096.41H980.086L1032.09 1242.18H997.865L987.642 1211.52L959.642 1211.96V1185.3H979.198L959.642 1127.52V1096.41Z"
     fill="#C90019"
     id="path1353" />
  <path
     d="M979.19 1211.65H942.086V1185.29H979.19V1211.65Z"
     fill="#C90019"
     id="path1355" />
  <path
     d="M966.975 1096.41H952.309V1127.52H966.975V1096.41Z"
     fill="#C90019"
     id="path1357" />
  <g
     clip-path="url(#clip1_1_215)"
     id="g1385">
    <path
       d="M102.8 1712.16L93.2868 1709.08L182.151 1434.8L191.664 1437.88L102.8 1712.16Z"
       fill="#3E4344"
       id="path1359" />
    <path
       d="M141.226 1192.21L139.809 1182.32L425.219 1141.47L426.637 1151.37L141.226 1192.21Z"
       fill="#3E4344"
       id="path1361" />
    <path
       d="M124.155 1746.87L128.384 1737.81L389.628 1859.79L385.398 1868.85L124.155 1746.87Z"
       fill="#3E4344"
       id="path1363" />
    <path
       d="M125.456 1731.08L124.52 1721.12L478.212 1687.92L479.147 1697.88L125.456 1731.08Z"
       fill="#3E4344"
       id="path1365" />
    <path
       d="M132.416 1222.92L140.021 1216.42L370.7 1486.59L363.093 1493.08L132.416 1222.92Z"
       fill="#3E4344"
       id="path1367" />
    <path
       d="M99.5781 1722.51L93.6115 1714.48L378.693 1502.52L384.661 1510.55L99.5781 1722.51Z"
       fill="#3E4344"
       id="path1369" />
    <path
       d="M495.791 1142.81C495.791 1170.97 472.959 1193.8 444.794 1193.8C416.628 1193.8 393.796 1170.97 393.796 1142.81C393.796 1114.64 416.628 1091.81 444.794 1091.81C472.959 1091.81 495.791 1114.64 495.791 1142.81Z"
       fill="#3E4344"
       id="path1371" />
    <path
       d="M163.141 1191.14C163.141 1219.3 140.309 1242.13 112.144 1242.13C83.9786 1242.13 61.1466 1219.3 61.1466 1191.14C61.1466 1162.97 83.9786 1140.14 112.144 1140.14C140.309 1140.14 163.141 1162.97 163.141 1191.14Z"
       fill="#C90019"
       id="path1373" />
    <path
       d="M241.803 1414.79C241.803 1442.96 218.971 1465.79 190.806 1465.79C162.641 1465.79 139.809 1442.96 139.809 1414.79C139.809 1386.63 162.641 1363.79 190.806 1363.79C218.971 1363.79 241.803 1386.63 241.803 1414.79Z"
       fill="#3E4344"
       id="path1375" />
    <path
       d="M429.794 1507.6C429.794 1535.76 406.962 1558.6 378.797 1558.6C350.632 1558.6 327.8 1535.76 327.8 1507.6C327.8 1479.43 350.632 1456.6 378.797 1456.6C406.962 1456.6 429.794 1479.43 429.794 1507.6Z"
       fill="#3E4344"
       id="path1377" />
    <path
       d="M142.475 1724.11C142.475 1752.28 119.643 1775.11 91.4779 1775.11C63.3125 1775.11 40.4805 1752.28 40.4805 1724.11C40.4805 1695.95 63.3125 1673.11 91.4779 1673.11C119.643 1673.11 142.475 1695.95 142.475 1724.11Z"
       fill="#C90019"
       id="path1379" />
    <path
       d="M545.455 1694.11C545.455 1722.28 522.623 1745.11 494.458 1745.11C466.292 1745.11 443.46 1722.28 443.46 1694.11C443.46 1665.95 466.292 1643.12 494.458 1643.12C522.623 1643.12 545.455 1665.95 545.455 1694.11Z"
       fill="#3E4344"
       id="path1381" />
    <path
       d="M474.126 1884.77C474.126 1912.93 451.294 1935.77 423.128 1935.77C394.963 1935.77 372.131 1912.93 372.131 1884.77C372.131 1856.6 394.963 1833.77 423.128 1833.77C451.294 1833.77 474.126 1856.6 474.126 1884.77Z"
       fill="#3E4344"
       id="path1383" />
  </g>
  <rect
     x="0.5"
     y="0.5"
     width="1372"
     height="1955"
     rx="4.5"
     stroke="#9747FF"
     stroke-dasharray="10 5"
     id="rect1387" />
  <defs
     id="defs1395">
    <clipPath
       id="clip0_1_215">
      <rect
         width="506"
         height="845"
         fill="white"
         transform="translate(20 20)"
         id="rect1389" />
    </clipPath>
    <clipPath
       id="clip1_1_215">
      <rect
         width="506"
         height="845"
         fill="white"
         transform="translate(40 1091)"
         id="rect1392" />
    </clipPath>
  </defs>
</svg>
