<?xml version="1.0" encoding="UTF-8" standalone="no"?>
<!-- Created with Inkscape (http://www.inkscape.org/) -->

<svg
   width="1000"
   height="1000"
   viewBox="0 0 264.58333 264.58334"
   version="1.1"
   id="svg8"
   inkscape:version="1.2.2 (b0a8486541, 2022-12-01)"
   sodipodi:docname="banner-contador-hoje.svg"
   enable-background="new"
   inkscape:export-filename="banner-contador-hoje.png"
   inkscape:export-xdpi="96"
   inkscape:export-ydpi="96"
   xmlns:inkscape="http://www.inkscape.org/namespaces/inkscape"
   xmlns:sodipodi="http://sodipodi.sourceforge.net/DTD/sodipodi-0.dtd"
   xmlns:xlink="http://www.w3.org/1999/xlink"
   xmlns="http://www.w3.org/2000/svg"
   xmlns:svg="http://www.w3.org/2000/svg"
   xmlns:rdf="http://www.w3.org/1999/02/22-rdf-syntax-ns#"
   xmlns:cc="http://creativecommons.org/ns#"
   xmlns:dc="http://purl.org/dc/elements/1.1/">
  <defs
     id="defs2">
    <radialGradient
       id="rect5602_1_-1-0"
       cx="39.507702"
       cy="136.8791"
       r="629.53729"
       gradientTransform="matrix(0.36767629,0,0,-0.26488582,115.90193,189.91301)"
       gradientUnits="userSpaceOnUse">
      <stop
         offset="0"
         style="stop-color:#ED6D14"
         id="stop6328-3-0" />
      <stop
         offset="1"
         style="stop-color:#AF1917"
         id="stop6330-0-2" />
    </radialGradient>
    <linearGradient
       id="linearGradient11737">
      <stop
         style="stop-color:#ffffff;stop-opacity:0;"
         offset="0"
         id="stop11739" />
      <stop
         id="stop11741"
         offset="0.7044031"
         style="stop-color:#0046af;stop-opacity:0;" />
      <stop
         id="stop11743"
         offset="0.86842364"
         style="stop-color:#0044ab;stop-opacity:0.42352942;" />
      <stop
         style="stop-color:#003996;stop-opacity:0.64999998;"
         offset="0.95386213"
         id="stop11745" />
      <stop
         style="stop-color:#002c80;stop-opacity:1;"
         offset="1"
         id="stop11747" />
    </linearGradient>
    <linearGradient
       id="linearGradient11729">
      <stop
         id="stop11731"
         offset="0"
         style="stop-color:#5bcaff;stop-opacity:1;" />
      <stop
         id="stop11733"
         offset="1"
         style="stop-color:#0071de;stop-opacity:1;" />
    </linearGradient>
    <linearGradient
       id="linearGradient5073">
      <stop
         id="stop5075"
         offset="0"
         style="stop-color:#ffffff;stop-opacity:1;" />
      <stop
         id="stop5077"
         offset="1"
         style="stop-color:#ffffff;stop-opacity:0;" />
    </linearGradient>
    <radialGradient
       id="SVGID_7_-6"
       cx="41.2771"
       cy="77.994598"
       r="115.1427"
       gradientTransform="matrix(0.59465161,-0.00803016,0.00779185,0.57698869,27.560967,38.49588)"
       gradientUnits="userSpaceOnUse">
      <stop
         offset="0"
         style="stop-color:#F9B233"
         id="stop8653-6" />
      <stop
         offset="1"
         style="stop-color:#AF1917"
         id="stop8655-1" />
    </radialGradient>
    <radialGradient
       id="rect5602_1_-1-0-5"
       cx="39.507702"
       cy="136.8791"
       r="629.53729"
       gradientTransform="matrix(0.36767629,0,0,-0.26488583,115.90192,157.49637)"
       gradientUnits="userSpaceOnUse">
      <stop
         offset="0"
         style="stop-color:#ED6D14"
         id="stop6328-3-0-6" />
      <stop
         offset="1"
         style="stop-color:#AF1917"
         id="stop6330-0-2-5" />
    </radialGradient>
    <filter
       inkscape:collect="always"
       style="color-interpolation-filters:sRGB"
       id="filter5204">
      <feBlend
         inkscape:collect="always"
         mode="multiply"
         in2="BackgroundImage"
         id="feBlend5206" />
    </filter>
    <filter
       inkscape:collect="always"
       id="filter14506-80-6-61-4-1"
       style="color-interpolation-filters:sRGB"
       x="-0.14978878"
       y="-0.44617967"
       width="1.2995776"
       height="1.8923593">
      <feGaussianBlur
         inkscape:collect="always"
         stdDeviation="0.70957443"
         id="feGaussianBlur14508-15-9-2-0-4" />
    </filter>
    <radialGradient
       r="68.636078"
       fy="170.44995"
       fx="339.39481"
       cy="170.44995"
       cx="339.39481"
       gradientUnits="userSpaceOnUse"
       id="radialGradient20235-6-6"
       xlink:href="#linearGradient11737"
       inkscape:collect="always"
       gradientTransform="matrix(0.68715852,0,0,0.68715852,599.61371,681.9423)" />
    <radialGradient
       r="68.136078"
       fy="131.75188"
       fx="360.3381"
       cy="131.75188"
       cx="360.3381"
       gradientTransform="matrix(2.0322283,0,0,2.0322283,-350.33294,-138.65768)"
       gradientUnits="userSpaceOnUse"
       id="radialGradient20237-1-4"
       xlink:href="#linearGradient11729"
       inkscape:collect="always" />
    <filter
       height="1.32"
       y="-0.15999999"
       width="1.32"
       x="-0.16"
       id="filter4645-1-8"
       inkscape:collect="always">
      <feGaussianBlur
         id="feGaussianBlur4647-0-8"
         stdDeviation="9.0848104"
         inkscape:collect="always" />
    </filter>
    <filter
       inkscape:collect="always"
       id="filter15293-3-9"
       x="-0.10819635"
       y="-0.075850788"
       width="1.21636"
       height="1.1526797">
      <feGaussianBlur
         inkscape:collect="always"
         stdDeviation="2.6999294"
         id="feGaussianBlur15295-4-2" />
    </filter>
    <linearGradient
       inkscape:collect="always"
       xlink:href="#linearGradient5073"
       id="linearGradient23510"
       gradientUnits="userSpaceOnUse"
       gradientTransform="matrix(-0.63593482,-0.37693419,-0.22248174,0.57997513,1235.4192,915.11076)"
       x1="530.65643"
       y1="92.872658"
       x2="571.87354"
       y2="138.7977" />
  </defs>
  <sodipodi:namedview
     id="base"
     pagecolor="#ffffff"
     bordercolor="#666666"
     borderopacity="1.0"
     inkscape:pageopacity="0.0"
     inkscape:pageshadow="2"
     inkscape:zoom="0.49497475"
     inkscape:cx="645.48748"
     inkscape:cy="642.45702"
     inkscape:document-units="mm"
     inkscape:current-layer="layer2"
     showgrid="false"
     units="px"
     inkscape:snap-others="true"
     inkscape:snap-nodes="false"
     inkscape:window-width="1920"
     inkscape:window-height="1003"
     inkscape:window-x="1080"
     inkscape:window-y="643"
     inkscape:window-maximized="1"
     showguides="true"
     inkscape:showpageshadow="2"
     inkscape:pagecheckerboard="0"
     inkscape:deskcolor="#d1d1d1" />
  <metadata
     id="metadata5">
    <rdf:RDF>
      <cc:Work
         rdf:about="">
        <dc:format>image/svg+xml</dc:format>
        <dc:type
           rdf:resource="http://purl.org/dc/dcmitype/StillImage" />
      </cc:Work>
    </rdf:RDF>
  </metadata>
  <g
     inkscape:groupmode="layer"
     id="layer2"
     inkscape:label="BG">
    <rect
       id="rect5602-3"
       x="-5.0862632e-006"
       y="-3.3839596e-014"
       class="st0"
       width="264.58337"
       height="264.58337"
       style="fill:url(#rect5602_1_-1-0-5);stroke-width:0.42072514" />
  </g>
  <g
     inkscape:groupmode="layer"
     id="layer3"
     inkscape:label="Sombra"
     style="filter:url(#filter5204)" />
  <g
     inkscape:label="Arte"
     inkscape:groupmode="layer"
     id="layer1"
     transform="translate(0,-32.41665)"
     style="display:inline">
    <text
       id="text5349"
       y="65.854614"
       x="131.8757"
       style="font-style:normal;font-variant:normal;font-weight:300;font-stretch:normal;font-size:21.3312px;line-height:1.25;font-family:Lato;-inkscape-font-specification:'Lato, Light';font-variant-ligatures:normal;font-variant-caps:normal;font-variant-numeric:normal;font-feature-settings:normal;text-align:start;letter-spacing:0px;word-spacing:0px;writing-mode:lr-tb;text-anchor:start;fill:#ffffff;fill-opacity:1;stroke:none;stroke-width:0.53328"
       xml:space="preserve"><tspan
         style="font-style:normal;font-variant:normal;font-weight:normal;font-stretch:normal;font-size:21.3313px;font-family:Lato;-inkscape-font-specification:'Lato, Normal';font-variant-ligatures:normal;font-variant-caps:normal;font-variant-numeric:normal;font-feature-settings:normal;text-align:center;writing-mode:lr-tb;text-anchor:middle;fill:#ffffff;stroke-width:0.53328"
         y="65.854614"
         x="131.8757"
         sodipodi:role="line"
         id="tspan4836">Prepare-se:</tspan><tspan
         y="92.518646"
         x="131.8757"
         sodipodi:role="line"
         id="tspan4834" /></text>
    <g
       id="g13760-6"
       transform="matrix(1.3443175,0,0,1.3443214,192.31072,290.58717)"
       style="enable-background:new">
      <g
         id="g6845_1_-1-8"
         transform="matrix(0.08621568,0,0,0.08621568,-18.753919,63.108514)"
         style="display:inline">
        <g
           id="g6848_1_-9-3"
           transform="translate(-1.9999988,247.45081)">
          <g
             id="path6850_1_-6-8">
            <g
               id="g24832-9-3">
              <path
                 style="fill:#ffffff"
                 inkscape:connector-curvature="0"
                 class="st1"
                 d="m -1004.7,-1162.6 c -6.2,0 -11.2,-5 -11.2,-11.2 V -1297 c 0,-24.9 20.3,-45.2 45.2,-45.2 h 21.3 c 6.2,0 11.2,5 11.2,11.2 0,6.2 -5,11.2 -11.2,11.2 h -21.3 c -12.6,0 -22.8,10.2 -22.8,22.8 v 123.2 c 0,6.2 -5,11.2 -11.2,11.2 z"
                 id="path24834-3-3" />
            </g>
          </g>
          <g
             id="path6852_1_-3-3">
            <g
               id="g24837-8-8">
              <path
                 style="fill:#ffffff"
                 inkscape:connector-curvature="0"
                 class="st1"
                 d="m -957.4,-1245.5 h -58.9 c -6.2,0 -11.2,-5 -11.2,-11.2 0,-6.2 5,-11.2 11.2,-11.2 h 58.9 c 6.2,0 11.2,5 11.2,11.2 0,6.2 -5,11.2 -11.2,11.2 z"
                 id="path24839-0-0" />
            </g>
          </g>
        </g>
        <g
           id="path6854_1_-56-4">
          <g
             id="g24842-6-7">
            <path
               style="fill:#ffffff"
               inkscape:connector-curvature="0"
               class="st1"
               d="m -837.3,-915.2 c -6.2,0 -11.2,-5 -11.2,-11.2 v -157.8 c 0,-6.2 5,-11.2 11.2,-11.2 6.2,0 11.2,5 11.2,11.2 v 157.8 c 0,6.2 -5.1,11.2 -11.2,11.2 z"
               id="path24844-4-6" />
          </g>
        </g>
        <g
           id="path6856_1_-0-8">
          <g
             id="g24847-0-9">
            <path
               style="fill:#ffffff"
               inkscape:connector-curvature="0"
               class="st1"
               d="m -758.9,-915.2 h -37.5 c -6.2,0 -11.2,-5 -11.2,-11.2 0,-6.2 5,-11.2 11.2,-11.2 h 37.5 c 13.5,0 24.5,-10.9 24.5,-24.3 v -7.1 c 0,-6.6 -2.5,-12.7 -7.2,-17.3 -4.6,-4.5 -10.6,-7 -17.1,-7 -0.2,0 -0.4,0 -0.6,0 -1,0.2 -2.2,0.3 -3.5,0.4 -1.3,0 -3.3,0 -6.3,0.1 -25.9,0 -47,-21 -47,-46.7 v -7.1 c 0,-25.8 21,-46.7 46.9,-46.7 h 37.5 c 6.2,0 11.2,5 11.2,11.2 0,6.2 -5,11.2 -11.2,11.2 h -37.5 c -13.5,0 -24.5,10.9 -24.5,24.3 v 7.1 c 0,13.4 11,24.3 24.5,24.3 0.1,0 0.3,0 0.4,0 1,-0.2 2.2,-0.3 3.5,-0.4 1.3,0 3.3,0 6.3,-0.1 0.1,0 0.2,0 0.3,0 12.4,0 24.1,4.8 32.9,13.6 8.9,8.8 13.8,20.6 13.8,33.2 v 7.1 c 0,25.6 -21,46.6 -46.9,46.6 z"
               id="path24849-4-0" />
          </g>
        </g>
        <g
           id="rect6858_1_-6-6">
          <g
             id="g24852-2-8">
            <path
               style="fill:#ffffff"
               inkscape:connector-curvature="0"
               class="st1"
               d="m -640.2,-915.2 h -31.4 c -18.4,0 -33.4,-15 -33.4,-33.4 v -66.6 c 0,-18.4 15,-33.4 33.4,-33.4 h 31.4 c 18.4,0 33.4,15 33.4,33.4 v 66.6 c 0,18.5 -15,33.4 -33.4,33.4 z m -31.4,-110.9 c -6,0 -11,4.9 -11,11 v 66.6 c 0,6 4.9,11 11,11 h 31.4 c 6,0 11,-4.9 11,-11 v -66.6 c 0,-6 -4.9,-11 -11,-11 z"
               id="path24854-67-7" />
          </g>
        </g>
        <g
           id="path6860_1_-5-9">
          <g
             id="g24857-6-0">
            <path
               style="fill:#ffffff"
               inkscape:connector-curvature="0"
               class="st1"
               d="M -866.8,-915.2 H -888 c -24.9,0 -45.2,-20.3 -45.2,-45.2 v -123.2 c 0,-6.2 5,-11.2 11.2,-11.2 6.2,0 11.2,5 11.2,11.2 v 123.2 c 0,12.6 10.2,22.8 22.8,22.8 h 21.3 c 6.2,0 11.2,5 11.2,11.2 0,6.2 -5.1,11.2 -11.3,11.2 z"
               id="path24859-98-3" />
          </g>
        </g>
        <g
           id="path6862_1_-7-3">
          <g
             id="g24862-2-3">
            <path
               style="fill:#ffffff"
               inkscape:connector-curvature="0"
               class="st1"
               d="M -531.7,-915.2 H -553 c -24.9,0 -45.2,-20.3 -45.2,-45.2 v -123.2 c 0,-6.2 5,-11.2 11.2,-11.2 6.2,0 11.2,5 11.2,11.2 v 123.2 c 0,12.6 10.2,22.8 22.8,22.8 h 21.3 c 6.2,0 11.2,5 11.2,11.2 0,6.2 -5,11.2 -11.2,11.2 z"
               id="path24864-8-7" />
          </g>
        </g>
      </g>
      <g
         id="g6864_1_-2-3"
         transform="matrix(0.09112324,0,0,0.09112324,-23.644471,110.93642)"
         style="display:inline">
        <g
           id="path6866_1_-9-2">
          <g
             id="g24868-9-6">
            <path
               style="fill:#ffffff"
               inkscape:connector-curvature="0"
               sodipodi:nodetypes="cccccccccccccccccccc"
               class="st1"
               d="m -294.1,-1453.3 77.8,77.3 45.6,-42.1 -38.1,-36.1 -25.4,24.8 17.8,17 21.6,-16.4 1.9,1.9 -18.4,19.1 c -2.8,2.8 -5.8,3.7 -9.3,0.6 l -18.5,-17.8 c -2.2,-2.8 -2.7,-5.5 -0.9,-8.1 0,0 11.2,-14.9 26.5,-28.3 4.8,-3.5 8.9,-2.6 12.7,0.9 l 40.6,35.4 c 3.7,4.3 2.9,9.7 -1,13.7 l -46.7,49.8 c -4.4,5.1 -14.7,4.8 -19.1,-0.2 l -81.4,-77.9 z"
               id="path24870-6-5" />
          </g>
        </g>
        <g
           id="path6868_1_-0-2">
          <g
             id="g24873-2-6">
            <path
               style="fill:#ffffff"
               inkscape:connector-curvature="0"
               sodipodi:nodetypes="cccccccccccccccccccc"
               class="st1"
               d="m -336.4,-1498.7 -77.8,-77.3 -45.6,42.1 38.1,36.1 25.4,-24.8 -17.8,-17 -21.6,16.4 -1.9,-1.9 18.4,-19.1 c 2.8,-2.8 5.8,-3.7 9.3,-0.6 l 18.5,17.8 c 2.2,2.8 2.7,5.5 0.9,8.1 0,0 -11.2,14.9 -26.5,28.3 -4.8,3.5 -8.9,2.6 -12.7,-0.9 l -40.6,-35.4 c -3.7,-4.3 -2.9,-9.7 1,-13.7 l 46.7,-49.8 c 4.4,-5.1 14.7,-4.8 19.1,0.2 l 81.4,77.9 z"
               id="path24875-7-5" />
          </g>
        </g>
        <g
           id="path6870_1_-61-8">
          <g
             id="g24878-3-7">
            <path
               style="fill:#ffffff"
               inkscape:connector-curvature="0"
               sodipodi:nodetypes="cccccccccccccccccccc"
               class="st1"
               d="m -292.6,-1497.2 77.3,-77.8 -42.1,-45.6 -36.1,38.1 24.8,25.4 17,-17.8 -16.4,-21.6 1.9,-1.9 19.1,18.4 c 2.8,2.8 3.7,5.8 0.6,9.3 l -17.8,18.5 c -2.8,2.2 -5.5,2.7 -8.1,0.9 0,0 -14.9,-11.2 -28.3,-26.5 -3.5,-4.8 -2.6,-8.9 0.9,-12.7 l 35.4,-40.6 c 4.3,-3.7 9.7,-2.9 13.7,1 l 49.8,46.7 c 5.1,4.4 4.8,14.7 -0.2,19.1 l -77.9,81.4 z"
               id="path24880-2-9" />
          </g>
        </g>
        <g
           id="path6872_1_-1-6">
          <g
             id="g24883-5-0">
            <path
               style="fill:#ffffff"
               inkscape:connector-curvature="0"
               sodipodi:nodetypes="cccccccccccccccccccc"
               class="st1"
               d="m -337.9,-1454.8 -77.3,77.8 42.1,45.6 36.1,-38.1 -24.8,-25.4 -17,17.8 16.4,21.6 -1.9,1.9 -19.1,-18.4 c -2.8,-2.8 -3.7,-5.8 -0.6,-9.3 l 17.8,-18.5 c 2.8,-2.2 5.5,-2.7 8.1,-0.9 0,0 14.9,11.2 28.3,26.5 3.5,4.8 2.6,8.9 -0.9,12.7 l -35.3,40.5 c -4.3,3.7 -9.7,2.9 -13.7,-1 l -49.8,-46.7 c -5.1,-4.4 -4.8,-14.7 0.2,-19.1 l 77.9,-81.4 z"
               id="path24885-9-4" />
          </g>
        </g>
        <g
           id="g6874_1_-9-1"
           transform="matrix(1.0923337,0.25861982,-0.25861982,1.0923337,160.90403,65.72318)">
          <g
             id="path6876_1_-1-0">
            <g
               id="g24889-4-4">
              <path
                 style="fill:#ffffff"
                 inkscape:connector-curvature="0"
                 sodipodi:nodetypes="ccsccc"
                 class="st1"
                 d="m -716.2,-1184.4 22.9,68.7 c 0,0 16.2,-7.5 17.1,2.7 0.9,10.2 -22.4,9 -22.4,9 l -21.9,-79.9 z"
                 id="path24891-9-8" />
            </g>
          </g>
          <g
             id="ellipse6878_1_-1-7">
            <g
               id="g24894-0-0">
              <path
                 id="ellipse24896-75-8"
                 style="fill:#ffffff"
                 class="st1"
                 transform="matrix(-0.2049,0.9788,-0.9788,-0.2049,-1969.4539,-714.7151)"
                 d="m -687.20002,-1157.3 a 7.1999998,10.5 0 0 1 -7.2,10.5 7.1999998,10.5 0 0 1 -7.2,-10.5 7.1999998,10.5 0 0 1 7.2,-10.5 7.1999998,10.5 0 0 1 7.2,10.5 z" />
            </g>
          </g>
          <g
             id="ellipse6880_1_-8-6">
            <g
               id="g24899-7-2">
              <path
                 id="ellipse24901-0-4"
                 style="fill:#ffffff"
                 class="st1"
                 transform="matrix(-0.2049,0.9788,-0.9788,-0.2049,-1938.2141,-705.644)"
                 d="m -675.3,-1140.1 a 7.1999998,10.5 0 0 1 -7.2,10.5 7.1999998,10.5 0 0 1 -7.2,-10.5 7.1999998,10.5 0 0 1 7.2,-10.5 7.1999998,10.5 0 0 1 7.2,10.5 z" />
            </g>
          </g>
          <g
             id="path6882_1_-4-7">
            <g
               id="g24904-8-9">
              <path
                 style="fill:#ffffff"
                 inkscape:connector-curvature="0"
                 sodipodi:nodetypes="ccsccc"
                 class="st1"
                 d="m -742.2,-1293.1 -22.9,-68.7 c 0,0 -16.2,7.5 -17.1,-2.7 -0.9,-10.2 22.4,-9 22.4,-9 l 21.9,79.9 z"
                 id="path24906-0-3" />
            </g>
          </g>
          <g
             id="ellipse6884_1_-42-9">
            <g
               id="g24909-9-2">
              <path
                 id="ellipse24911-6-8"
                 style="fill:#ffffff"
                 class="st1"
                 transform="matrix(-0.2049,0.9788,-0.9788,-0.2049,-2212.728,-842.939)"
                 d="m -756.8,-1320.2 a 7.1999998,10.5 0 0 1 -7.2,10.5 7.1999998,10.5 0 0 1 -7.2,-10.5 7.1999998,10.5 0 0 1 7.2,-10.5 7.1999998,10.5 0 0 1 7.2,10.5 z" />
            </g>
          </g>
          <g
             id="ellipse6886_1_-1-3">
            <g
               id="g24914-0-0">
              <path
                 id="ellipse24916-4-1"
                 style="fill:#ffffff"
                 class="st1"
                 transform="matrix(-0.2049,0.9788,-0.9788,-0.2049,-2243.9678,-852.0101)"
                 d="m -768.70002,-1337.5 a 7.1999998,10.5 0 0 1 -7.2,10.5 7.1999998,10.5 0 0 1 -7.2,-10.5 7.1999998,10.5 0 0 1 7.2,-10.5 7.1999998,10.5 0 0 1 7.2,10.5 z" />
            </g>
          </g>
          <g
             id="path6888_1_-2-7">
            <g
               id="g24919-2-8">
              <path
                 style="fill:#ffffff"
                 inkscape:connector-curvature="0"
                 sodipodi:nodetypes="ccsccc"
                 class="st1"
                 d="m -674.9,-1251.8 68.7,-22.9 c 0,0 -7.5,-16.2 2.7,-17.1 10.2,-0.8 9,22.4 9,22.4 l -79.9,21.9 z"
                 id="path24921-2-9" />
            </g>
          </g>
          <g
             id="ellipse6890_1_-05-1">
            <g
               id="g24924-5-5">
              <path
                 id="ellipse24926-2-4"
                 style="fill:#ffffff"
                 class="st1"
                 transform="matrix(-0.2049,0.9788,-0.9788,-0.2049,-2026.9791,-900.4641)"
                 d="m -637.20001,-1273.6 a 10.5,7.1999998 0 0 1 -10.5,7.2 10.5,7.1999998 0 0 1 -10.5,-7.2 10.5,7.1999998 0 0 1 10.5,-7.2 10.5,7.1999998 0 0 1 10.5,7.2 z" />
            </g>
          </g>
          <g
             id="ellipse6892_1_-9-9">
            <g
               id="g24929-0-2">
              <path
                 id="ellipse24931-2-5"
                 style="fill:#ffffff"
                 class="st1"
                 transform="matrix(-0.2049,0.9788,-0.9788,-0.2049,-2017.908,-931.7039)"
                 d="m -620,-1285.5 a 10.5,7.1999998 0 0 1 -10.5,7.2 10.5,7.1999998 0 0 1 -10.5,-7.2 10.5,7.1999998 0 0 1 10.5,-7.2 10.5,7.1999998 0 0 1 10.5,7.2 z" />
            </g>
          </g>
          <g
             id="path6894_1_-8-7">
            <g
               id="g24934-38-4">
              <path
                 style="fill:#ffffff"
                 inkscape:connector-curvature="0"
                 sodipodi:nodetypes="ccsccc"
                 class="st1"
                 d="m -783.5,-1225.8 -68.7,22.9 c 0,0 7.5,16.2 -2.7,17.1 -10.2,0.9 -9,-22.4 -9,-22.4 l 79.9,-21.9 z"
                 id="path24936-0-9" />
            </g>
          </g>
          <g
             id="ellipse6896_1_-40-9">
            <g
               id="g24939-91-4">
              <path
                 id="ellipse24941-9-5"
                 style="fill:#ffffff"
                 class="st1"
                 transform="matrix(-0.2049,0.9788,-0.9788,-0.2049,-2155.2029,-657.1899)"
                 d="m -800.20001,-1204 a 10.5,7.1999998 0 0 1 -10.5,7.2 10.5,7.1999998 0 0 1 -10.5,-7.2 10.5,7.1999998 0 0 1 10.5,-7.2 10.5,7.1999998 0 0 1 10.5,7.2 z" />
            </g>
          </g>
          <g
             id="ellipse6898_1_-6-9">
            <g
               id="g24944-2-3">
              <path
                 id="ellipse24946-5-5"
                 style="fill:#ffffff"
                 class="st1"
                 transform="matrix(-0.2049,0.9788,-0.9788,-0.2049,-2164.2742,-625.9502)"
                 d="m -817.40002,-1192.1 a 10.5,7.1999998 0 0 1 -10.5,7.2 10.5,7.1999998 0 0 1 -10.5,-7.2 10.5,7.1999998 0 0 1 10.5,-7.2 10.5,7.1999998 0 0 1 10.5,7.2 z" />
            </g>
          </g>
        </g>
      </g>
      <g
         transform="matrix(0,0.09441033,-0.30186936,0,33.061332,-43.30289)"
         id="g27106-4-7"
         style="display:inline">
        <path
           id="line27108-4-0"
           d="M 60.299999,219.8 H 362.89999" />
        <path
           id="rect27110-9-8"
           style="fill:#ffffff"
           class="st1"
           d="M 60.299999,218.8 H 362.90001 v 2 H 60.299999 Z" />
      </g>
      <g
         transform="matrix(0.16249415,0,0,0.16249415,-187.59081,-153.49097)"
         id="g64289-9-1"
         style="display:inline">
        <path
           transform="matrix(0.80201649,0,0,0.80201649,1926.4315,1753.3757)"
           inkscape:connector-curvature="0"
           id="path20199-36-9"
           d="m -1358.6983,-1122.7245 c 0,0 0.7308,-3.0048 4.5476,-3.0048 3.8168,0 6.8216,3.8168 6.8216,3.8168 0,0 -5.6846,-2.4362 -7.7149,-2.4362 -2.0302,0 -3.6543,1.6242 -3.6543,1.6242 z"
           style="color:#000000;display:inline;overflow:visible;visibility:visible;opacity:0.567347;fill:#ffffff;fill-opacity:1;fill-rule:nonzero;stroke:none;stroke-width:1px;marker:none;filter:url(#filter14506-80-6-61-4-1);enable-background:accumulate" />
        <path
           id="path20221-0-9"
           style="display:inline;overflow:visible;fill:#ffffff;stroke:#0055d4;stroke-width:5.43439;marker:none;enable-background:accumulate"
           d="m 877.13261,799.06836 a 44.300766,44.300766 0 0 1 -44.30076,44.30077 44.300766,44.300766 0 0 1 -44.30077,-44.30077 44.300766,44.300766 0 0 1 44.30077,-44.30077 44.300766,44.300766 0 0 1 44.30076,44.30077 z" />
        <path
           id="path20223-5-7"
           style="display:inline;overflow:visible;fill:#0055d4;marker:none;enable-background:accumulate"
           d="m 879.65207,799.06842 a 46.820286,46.820286 0 0 1 -46.82028,46.82029 46.820286,46.820286 0 0 1 -46.82029,-46.82029 46.820286,46.820286 0 0 1 46.82029,-46.82029 46.820286,46.820286 0 0 1 46.82028,46.82029 z" />
        <path
           id="path20225-0-8"
           style="display:inline;overflow:visible;opacity:0.482072;fill:url(#radialGradient20235-6-6);marker:none;enable-background:accumulate"
           d="m 879.65207,799.06842 a 46.820286,46.820286 0 0 1 -46.82028,46.82029 46.820286,46.820286 0 0 1 -46.82029,-46.82029 46.820286,46.820286 0 0 1 46.82029,-46.82029 46.820286,46.820286 0 0 1 46.82028,46.82029 z" />
        <path
           id="path20227-2-2"
           style="display:inline;overflow:visible;fill:url(#radialGradient20237-1-4);stroke-width:1.35548;marker:none;filter:url(#filter4645-1-8);enable-background:accumulate"
           transform="matrix(0.52233967,0,0,0.52233967,655.55246,703.17964)"
           d="m 407.53088,170.44995 a 68.136078,68.136078 0 0 1 -68.13607,68.13608 68.136078,68.136078 0 0 1 -68.13608,-68.13608 68.136078,68.136078 0 0 1 68.13608,-68.13608 68.136078,68.136078 0 0 1 68.13607,68.13608 z" />
        <path
           transform="matrix(0.79084698,0,0,0.79084698,1911.5515,1740.0631)"
           inkscape:connector-curvature="0"
           id="path20229-9-5"
           d="m -1392.4809,-1232.0483 c -0.8019,0.033 -1.509,0.2328 -2.0475,0.6749 -0.2982,2.8855 0.7189,6.5887 2.9222,8.6149 -0.1902,-0.2464 -0.4195,-0.6929 -0.7355,-1.4291 -0.9777,-1.6628 -2.7369,-9.0374 0.656,-5.4787 1.989,4.1785 2.6367,9.2781 5.7252,12.9819 2.3538,3.8651 6.8255,4.1147 10.5955,5.0816 3.2734,1.588 4.3264,6.2894 7.8522,7.2255 2.5104,3.2637 -0.6389,7.349 -2.0078,10.5006 -2.7461,4.8644 2.8883,7.8174 4.6716,11.632 3.6086,4.9811 7.031,11.5771 4.3138,17.8452 -1.6058,4.5347 -1.9956,9.5445 -3.1409,14.2721 -0.5096,3.3536 -1.2328,10.3996 2.3855,11.0564 0.7253,-3.6267 0.4384,-7.5298 3.3595,-10.2624 2.8735,-5.4672 8.4716,-8.8774 12.7226,-12.7436 1.9606,-2.3297 5.7601,-7.6173 9.5221,-10.203 1.6683,-2.8236 1.1693,-7.6219 4.2343,-10.4213 2.348,-2.4836 3.5146,-8.2489 -0.994,-8.9324 -6.0092,-2.3954 -10.9523,-6.9424 -14.9491,-12.0886 -4.3284,-2.3316 -7.0463,-2.9684 -11.6629,-4.4538 -0.281,-0.091 -0.6668,2.4248 -1.5084,2.4164 -1.1507,-0.011 0.2655,-3.2189 -2.2349,-3.1236 -0.4188,1.379 -2.8098,3.5597 -4.453,4.0295 -0.6343,-1.0347 -2.8863,-3.2068 -2.7234,-4.9624 -0.075,-3.5364 -4.592,-3.6234 -2.8626,-6.9872 -1.0331,-2.9637 -5.1833,4.3511 -6.8781,-0.6552 -1.002,-4.349 -1.1763,-11.7175 -5.1885,-12.545 -1.9336,-0.7657 -5.1682,-2.1428 -7.5739,-2.0447 z m 24.8308,12.2251 c 0.3973,0.1244 2.1717,-0.4166 4.1253,-0.3854 1.8411,0.03 4.9133,1.545 5.4703,1.0618 -0.868,-2.878 -6.9897,-2.3488 -6.8746,-2.3354 -0.9249,0.7782 -3.383,1.4105 -2.721,1.659 z m 20.154,5.4712 c -0.1529,0.27 -0.9304,0.3375 -0.9313,-0.2161 0.3055,-0.5351 0.9002,-0.076 0.9313,0.2161 z m -3.6979,-1.0674 c -3.4763,-0.1072 -1.191,-1.878 -3.0367,-1.8379 -1.2939,0.027 -0.927,1.3862 -3.1699,1.1772 2.062,0.9711 2.2009,0.732 3.6375,1.4994 2.0386,-0.1206 3.2905,-0.092 2.5691,-0.8387 z"
           style="font-size:12px;fill:#0055d4;fill-opacity:1;fill-rule:nonzero;stroke:#ff7d23;stroke-width:1.14527;stroke-opacity:1;filter:url(#filter15293-3-9)"
           sodipodi:nodetypes="cccccccccccccccccccssccccccccscccccccsccc" />
        <path
           sodipodi:nodetypes="cccccccccccccccccccssccccccccscccccccsccc"
           style="font-size:12px;fill:#ccff00;fill-opacity:1;fill-rule:nonzero;stroke:#d4ff2a;stroke-width:0.905732;stroke-opacity:1"
           d="m 810.31213,765.70152 c -0.63419,0.0263 -1.19339,0.18405 -1.61927,0.53375 -0.23585,2.282 0.56853,5.21059 2.31098,6.81301 -0.15035,-0.19482 -0.33168,-0.54797 -0.58166,-1.13017 -0.77323,-1.31503 -2.16443,-7.14723 0.5188,-4.33284 1.57299,3.30456 2.08527,7.33761 4.52776,10.26674 1.86155,3.05667 5.39798,3.25412 8.37947,4.01874 2.58876,1.25589 3.42149,4.97392 6.20988,5.71426 1.98528,2.58107 -0.50531,5.81191 -1.58793,8.30439 -2.17167,3.84701 2.28426,6.18235 3.69457,9.19916 2.85388,3.93921 5.56048,9.15569 3.41154,14.11276 -1.26993,3.58625 -1.57824,7.54828 -2.48398,11.28705 -0.40296,2.65217 -0.97493,8.22451 1.88655,8.74394 0.5736,-2.86818 0.34672,-5.95491 2.65688,-8.11599 2.27248,-4.3237 6.6997,-7.0207 10.0616,-10.07827 1.55061,-1.84244 4.55538,-6.02411 7.53053,-8.06898 1.31938,-2.233 0.92475,-6.02774 3.34867,-8.24162 1.85693,-1.96418 2.77951,-6.52363 -0.78608,-7.06417 -4.75238,-1.89443 -8.66161,-5.49037 -11.82244,-9.56028 -3.42312,-1.84389 -5.57251,-2.34757 -9.22352,-3.52221 -0.22227,-0.0725 -0.52741,1.91762 -1.19294,1.911 -0.91008,-0.009 0.20995,-2.54565 -1.76745,-2.47029 -0.33122,1.0905 -2.22212,2.81511 -3.52167,3.18673 -0.50159,-0.81833 -2.28262,-2.53614 -2.15383,-3.92454 -0.0589,-2.79672 -3.63153,-2.86556 -2.26387,-5.52578 -0.81697,-2.34386 -4.09917,3.44106 -5.43947,-0.51817 -0.79243,-3.43943 -0.93028,-9.26673 -4.10333,-9.92121 -1.52915,-0.60557 -4.0873,-1.69463 -5.98979,-1.61701 z m 19.63736,9.66815 c 0.3142,0.0984 1.71745,-0.32941 3.26245,-0.30478 1.45606,0.0236 3.88568,1.22184 4.32623,0.83971 -0.68645,-2.27602 -5.52777,-1.85757 -5.43675,-1.84697 -0.73147,0.61544 -2.67544,1.1155 -2.15193,1.31204 z m 15.93872,4.32687 c -0.12092,0.21357 -0.73582,0.26692 -0.73654,-0.17091 0.24165,-0.42316 0.71199,-0.0598 0.73654,0.17091 z m -2.92443,-0.84414 c -2.74926,-0.0851 -0.94196,-1.48522 -2.40164,-1.45352 -1.02321,0.0217 -0.7331,1.09629 -2.50689,0.931 1.63078,0.76797 1.74064,0.57894 2.8767,1.18578 1.6122,-0.0954 2.60235,-0.0725 2.03183,-0.66326 z"
           id="path20231-43-3"
           inkscape:connector-curvature="0" />
        <path
           style="opacity:0.879808;fill:url(#linearGradient23510);fill-opacity:1;stroke:none"
           d="m 847.16792,758.59388 c 3.13845,1.65749 7.34032,4.24345 9.19436,5.91688 2.13544,1.1261 5.62324,4.03105 8.67356,6.32011 0,0 -4.21908,-4.75863 -8.01509,-7.46469 -3.03937,-2.09794 -6.46838,-3.56885 -9.85283,-4.7723 z m 15.59037,8.4177 4.09753,5.0154 3.65237,3.8048 -3.02289,-4.3467 z m -8.13284,-2.24205 c -5.11467,-3.20856 -14.27779,-7.52927 -14.27779,-7.52927 0,0 4.48012,4.83652 6.16578,10.75349 1.68574,5.91706 -0.50776,10.42226 -0.50776,10.42226 0,0 6.68603,1.226 14.82331,6.56077 8.2456,5.40568 12.87127,16.5816 12.87127,16.5816 0,0 0.47179,-6.27365 -2.05212,-15.21848 -2.52382,-8.94483 -6.00491,-13.65871 -6.00491,-13.65871 0,0 -5.90311,-4.7032 -11.01778,-7.91166 z m 12.99916,9.48664 c 1.84099,3.30058 4.12651,6.80395 4.86188,9.64414 1.58956,2.65326 2.90703,7.14542 4.23611,12.25936 0,0 -0.17291,-9.44778 -2.35038,-13.19679 -2.22674,-3.62021 -6.74761,-8.70671 -6.74761,-8.70671 z"
           id="path20233-5-4"
           inkscape:connector-curvature="0"
           sodipodi:nodetypes="cccccccccczczcsczczccccc" />
      </g>
      <g
         aria-label="BELO HORIZONTE"
         transform="scale(0.89855456,1.1128985)"
         id="text685-9-1-9"
         style="font-weight:bold;font-size:6.14571px;line-height:1.25;font-family:Lato;-inkscape-font-specification:'Lato Bold';fill:#ffffff;stroke-width:0.153644;enable-background:new">
        <path
           d="m -29.417238,-28.608303 c 0,-0.805088 -0.565405,-1.272162 -1.352056,-1.272162 h -1.825276 v 4.295851 h 1.997356 c 0.860399,0 1.364347,-0.516239 1.364347,-1.272162 0,-0.442491 -0.2151,-0.792796 -0.614571,-0.958731 0.270411,-0.165934 0.4302,-0.479365 0.4302,-0.792796 z m -1.419659,-0.485511 c 0.319577,0 0.522385,0.202808 0.51624,0.516239 -0.0061,0.288849 -0.202809,0.460929 -0.51624,0.460929 h -0.841962 v -0.977168 z m 0.135206,1.726944 c 0.141351,0 0.264265,0.01229 0.368742,0.08604 0.12906,0.09219 0.196663,0.251974 0.190517,0.424054 -0.01844,0.288849 -0.202808,0.47322 -0.51624,0.47322 h -1.020187 v -0.983314 z"
           style="font-weight:normal;font-family:'Intro Bold';-inkscape-font-specification:'Intro Bold, '"
           id="path14430" />
        <path
           d="m -25.834284,-29.886611 h -2.636509 v 4.301997 h 2.685675 v -0.835816 h -1.757673 v -0.983314 h 1.597884 v -0.805088 h -1.597884 v -0.872691 h 1.708507 z"
           style="font-weight:normal;font-family:'Intro Bold';-inkscape-font-specification:'Intro Bold, '"
           id="path14432" />
        <path
           d="m -24.033588,-29.886611 h -0.921857 v 4.301997 h 2.716404 v -0.823525 h -1.794547 z"
           style="font-weight:normal;font-family:'Intro Bold';-inkscape-font-specification:'Intro Bold, '"
           id="path14434" />
        <path
           d="m -17.580591,-27.735612 c 0,-1.444242 -1.063208,-2.218602 -2.187873,-2.218602 -1.143102,0 -2.20631,0.768214 -2.20631,2.218602 0,1.450387 1.038625,2.224747 2.187873,2.224747 1.30289,0 2.20631,-0.915711 2.20631,-2.224747 z m -3.466181,0 c 0,-0.909565 0.60228,-1.370494 1.278308,-1.370494 0.669882,0 1.272162,0.454783 1.272162,1.370494 0,0.940293 -0.608426,1.382784 -1.278308,1.382784 -0.688319,0 -1.272162,-0.442491 -1.272162,-1.382784 z"
           style="font-weight:normal;font-family:'Intro Bold';-inkscape-font-specification:'Intro Bold, '"
           id="path14436" />
        <path
           d="m -11.834349,-25.584614 v -4.301997 h -0.921856 v 1.640905 h -1.64705 v -1.640905 h -0.915711 v 4.301997 h 0.915711 v -1.81913 h 1.64705 v 1.81913 z"
           style="font-weight:normal;font-family:'Intro Bold';-inkscape-font-specification:'Intro Bold, '"
           id="path14438" />
        <path
           d="m -6.6842435,-27.735612 c 0,-1.444242 -1.0632078,-2.218602 -2.1878727,-2.218602 -1.1431018,0 -2.2063098,0.768214 -2.2063098,2.218602 0,1.450387 1.038625,2.224747 2.1878726,2.224747 1.3028906,0 2.2063099,-0.915711 2.2063099,-2.224747 z m -3.4661805,0 c 0,-0.909565 0.6022797,-1.370494 1.2783078,-1.370494 0.6698824,0 1.2721619,0.454783 1.2721619,1.370494 0,0.940293 -0.6084253,1.382784 -1.2783076,1.382784 -0.6883196,0 -1.2721621,-0.442491 -1.2721621,-1.382784 z"
           style="font-weight:normal;font-family:'Intro Bold';-inkscape-font-specification:'Intro Bold, '"
           id="path14440" />
        <path
           d="m -3.3348324,-27.15177 c 0.4916568,-0.239683 0.7682137,-0.719048 0.7682137,-1.266016 0,-0.762068 -0.5346768,-1.474971 -1.5179904,-1.474971 -0.614571,-0.0061 -1.2229963,0 -1.8375673,0 v 4.301997 h 0.9218565 v -1.419659 h 0.7682138 l 0.8849822,1.419659 h 0.9833136 v -0.129059 z m -1.6777789,-0.614571 v -1.321327 h 0.9218565 c 0.3933255,0 0.6330082,0.288848 0.6330082,0.651445 0.00615,0.368742 -0.2458284,0.669882 -0.6330082,0.669882 z"
           style="font-weight:normal;font-family:'Intro Bold';-inkscape-font-specification:'Intro Bold, '"
           id="path14442" />
        <path
           d="m -0.37260081,-26.315953 v -2.857755 H 0.1866588 v -0.712903 h -2.0403757 v 0.712903 h 0.5592596 v 2.857755 h -0.6084253 v 0.731339 h 2.13870708 v -0.731339 z"
           style="font-weight:normal;font-family:'Intro Bold';-inkscape-font-specification:'Intro Bold, '"
           id="path14444" />
        <path
           d="M 3.9908505,-29.886611 H 0.81966419 v 0.805088 H 2.6203572 l -1.97277289,3.367849 v 0.12906 H 4.0092877 v -0.823525 H 2.0426605 l 1.94819,-3.343266 z"
           style="font-weight:normal;font-family:'Intro Bold';-inkscape-font-specification:'Intro Bold, '"
           id="path14446" />
        <path
           d="m 8.8090903,-27.735612 c 0,-1.444242 -1.0632078,-2.218602 -2.1878727,-2.218602 -1.1431021,0 -2.2063099,0.768214 -2.2063099,2.218602 0,1.450387 1.038625,2.224747 2.1878727,2.224747 1.3028906,0 2.2063099,-0.915711 2.2063099,-2.224747 z m -3.4661804,0 c 0,-0.909565 0.6022796,-1.370494 1.2783077,-1.370494 0.6698824,0 1.2721619,0.454783 1.2721619,1.370494 0,0.940293 -0.6084252,1.382784 -1.2783076,1.382784 -0.6883196,0 -1.272162,-0.442491 -1.272162,-1.382784 z"
           style="font-weight:normal;font-family:'Intro Bold';-inkscape-font-specification:'Intro Bold, '"
           id="path14448" />
        <path
           d="m 12.914426,-25.572322 h 0.276557 v -4.314289 h -0.921857 v 2.439847 L 9.853862,-29.905048 H 9.5650137 v 4.320434 h 0.9157103 v -2.458284 z"
           style="font-weight:normal;font-family:'Intro Bold';-inkscape-font-specification:'Intro Bold, '"
           id="path14450" />
        <path
           d="m 14.94866,-29.087668 v 3.503054 h 0.891128 v -3.503054 h 1.143102 v -0.798943 h -3.183478 v 0.798943 z"
           style="font-weight:normal;font-family:'Intro Bold';-inkscape-font-specification:'Intro Bold, '"
           id="path14452" />
        <path
           d="M 20.227829,-29.886611 H 17.59132 v 4.301997 h 2.685675 v -0.835816 h -1.757673 v -0.983314 h 1.597885 v -0.805088 h -1.597885 v -0.872691 h 1.708507 z"
           style="font-weight:normal;font-family:'Intro Bold';-inkscape-font-specification:'Intro Bold, '"
           id="path14454" />
      </g>
      <g
         aria-label="2 0 2 3"
         transform="scale(0.9738384,1.0268644)"
         id="text10080-4-2"
         style="font-size:15.7504px;line-height:1.25;font-family:'Noto Sans';-inkscape-font-specification:'Noto Sans';fill:#ffffff;stroke-width:0.393761;enable-background:new">
        <path
           d="m -26.365353,-23.910503 c 2.835072,0 3.11858,2.819321 1.496288,4.614867 l -4.866873,5.733145 v 0.173255 h 6.804173 v -0.708768 h -3.307584 l -2.252307,0.04725 2.110553,-2.409811 c 0.740269,-0.866272 1.354534,-1.622292 2.063302,-2.425562 2.000301,-2.315309 1.260032,-5.748896 -2.063302,-5.685894 -2.094803,0.01575 -3.118579,1.039526 -3.118579,2.913824 h 0.677267 c 0,-1.512039 0.866272,-2.252307 2.457062,-2.252307 z"
           style="font-family:'Intro Light';-inkscape-font-specification:'Intro Light, '"
           id="path14457" />
        <path
           d="m -12.615262,-24.55627 c -2.283807,0 -4.063603,1.449037 -4.063603,3.795847 v 3.748595 c 0,2.36256 1.779796,3.795846 4.063603,3.795846 2.252308,0 4.0321027,-1.433286 4.0321027,-3.795846 v -3.748595 c 0,-2.34681 -1.7797947,-3.795847 -4.0321027,-3.795847 z m 0,10.61577 c -1.449036,0 -2.614566,-0.677268 -3.071327,-1.890048 -0.157504,-0.409511 -0.236256,-0.850522 -0.236256,-1.338784 v -3.433587 c 0,-0.488263 0.07875,-0.929274 0.236256,-1.323034 0.456761,-1.244282 1.622291,-1.921549 3.071327,-1.921549 1.433287,0 2.598816,0.677267 3.055578,1.921549 0.157504,0.39376 0.236256,0.834771 0.236256,1.323034 v 3.433587 c 0,0.488262 -0.078752,0.929273 -0.236256,1.338784 -0.456762,1.21278 -1.622291,1.890048 -3.055578,1.890048 z"
           style="font-family:'Intro Light';-inkscape-font-specification:'Intro Light, '"
           id="path14459" />
        <path
           d="m 0.9143144,-23.910503 c 2.8350719,0 3.1185791,2.819321 1.496288,4.614867 l -4.8668735,5.733145 v 0.173255 h 6.8041726 v -0.708768 H 1.0403176 l -2.2523071,0.04725 2.1105535,-2.409811 c 0.7402688,-0.866272 1.3545344,-1.622292 2.0633023,-2.425562 2.0003008,-2.315309 1.260032,-5.748896 -2.0633023,-5.685894 -2.0948031,0.01575 -3.1185791,1.039526 -3.1185791,2.913824 h 0.6772672 c 0,-1.512039 0.86627194,-2.252307 2.4570623,-2.252307 z"
           style="font-family:'Intro Light';-inkscape-font-specification:'Intro Light, '"
           id="path14461" />
        <path
           d="m 10.254294,-16.224308 c 0.236256,1.937299 1.638042,3.008326 3.575341,3.008326 2.283808,0 3.764346,-1.370285 3.764346,-3.575341 0,-2.016051 -1.480538,-3.339084 -3.512339,-3.213081 l 3.57534,-4.221107 v -0.189005 h -6.945926 v 0.708768 h 5.607142 l -3.465088,4.126605 v 0.283507 c 2.126304,-0.630016 3.984851,0.535513 3.984851,2.535814 0,1.842797 -1.244281,2.835072 -3.024076,2.835072 -1.512039,0 -2.598816,-0.80327 -2.835072,-2.299558 z"
           style="font-family:'Intro Light';-inkscape-font-specification:'Intro Light, '"
           id="path14463" />
      </g>
    </g>
    <g
       id="g1749"
       transform="matrix(0.95494953,0,0,0.95419927,-213.08534,-1.0545333)"
       style="fill:#ffcc00;fill-opacity:1">
      <text
         id="text5111"
         y="209.36514"
         x="298.91061"
         style="font-style:normal;font-weight:normal;font-size:43.6059px;line-height:1.25;font-family:sans-serif;letter-spacing:0px;word-spacing:0px;display:inline;fill:#ffcc00;fill-opacity:1;stroke:none;stroke-width:1.09015"
         xml:space="preserve"><tspan
           style="font-style:normal;font-variant:normal;font-weight:900;font-stretch:normal;font-family:Lato;-inkscape-font-specification:'Lato Heavy';fill:#ffcc00;fill-opacity:1;stroke-width:1.09015"
           y="209.36514"
           x="298.91061"
           id="tspan5109"
           sodipodi:role="line">HOJE!</tspan></text>
      <text
         xml:space="preserve"
         style="font-style:normal;font-weight:normal;font-size:62.4832px;line-height:1.25;font-family:sans-serif;letter-spacing:0px;word-spacing:0px;display:inline;fill:#ffcc00;fill-opacity:1;stroke:none;stroke-width:1.56208"
         x="342.50369"
         y="157.51485"
         id="text4771"><tspan
           sodipodi:role="line"
           id="tspan4769"
           x="342.50369"
           y="157.51485"
           style="font-style:normal;font-variant:normal;font-weight:900;font-stretch:normal;font-family:Lato;-inkscape-font-specification:'Lato Heavy';fill:#ffcc00;fill-opacity:1;stroke-width:1.56208">É</tspan></text>
    </g>
  </g>
  <style
     id="style4763"
     type="text/css">
	.st0{fill:#52677A;}
	.st1{fill:#B7CDD8;}
	.st2{fill:#FFFFFF;}
	.st3{fill:#F06024;}
	.st4{fill:#CE521F;}
	.st5{fill:#2C3B52;}
	.st6{fill:#EBEBEB;}
	.st7{fill:#BABABA;}
	.st8{fill:#E7E6E6;}
	.st9{fill:#8E96A3;}
	.st10{fill:#3D4D5C;}
	.st11{fill:#3E9697;}
	.st12{opacity:9.000000e-02;}
	.st13{fill:#DDDDDD;}
	.st14{fill:#CAD74B;}
</style>
</svg>
